-------------------------------------------------------------------------------
Test set: com.company.MainTest
-------------------------------------------------------------------------------
Tests run: 4, Failures: 0, Errors: 0, Skipped: 0, Time elapsed: 0.08 s - in com.company.MainTest
